<?xml version="1.0" encoding="UTF-8" standalone="no"?>
<!-- Created with Inkscape (http://www.inkscape.org/) -->

<svg
   xmlns:dc="http://purl.org/dc/elements/1.1/"
   xmlns:cc="http://creativecommons.org/ns#"
   xmlns:rdf="http://www.w3.org/1999/02/22-rdf-syntax-ns#"
   xmlns:svg="http://www.w3.org/2000/svg"
   xmlns="http://www.w3.org/2000/svg"
   xmlns:sodipodi="http://sodipodi.sourceforge.net/DTD/sodipodi-0.dtd"
   xmlns:inkscape="http://www.inkscape.org/namespaces/inkscape"
   width="78.812798mm"
   height="54.283901mm"
   viewBox="0 0 78.812798 54.283901"
   version="1.1"
   id="svg8"
   inkscape:version="0.92.5 (2060ec1f9f, 2020-04-08)"
   sodipodi:docname="SCA2D.svg"
   inkscape:export-filename="./SCA2D.png"
   inkscape:export-xdpi="257.82614"
   inkscape:export-ydpi="257.82614">
  <defs
     id="defs2" />
  <sodipodi:namedview
     id="base"
     pagecolor="#ffffff"
     bordercolor="#666666"
     borderopacity="1.0"
     inkscape:pageopacity="0.0"
     inkscape:pageshadow="2"
     inkscape:zoom="0.35"
     inkscape:cx="400"
     inkscape:cy="560"
     inkscape:document-units="mm"
     inkscape:current-layer="layer1"
     showgrid="false"
     fit-margin-top="5"
     fit-margin-left="5"
     fit-margin-right="5"
     fit-margin-bottom="5" />
  <metadata
     id="metadata5">
    <rdf:RDF>
      <cc:Work
         rdf:about="">
        <dc:format>image/svg+xml</dc:format>
        <dc:type
           rdf:resource="http://purl.org/dc/dcmitype/StillImage" />
        <dc:title></dc:title>
      </cc:Work>
    </rdf:RDF>
  </metadata>
  <g
     inkscape:label="Layer 1"
     inkscape:groupmode="layer"
     id="layer1"
     transform="translate(239.67794,-59.757891)">
    <g
       id="g911"
       transform="translate(-1.6121249)">
      <text
         id="text12"
         y="88.597176"
         x="-230.13579"
         style="font-style:normal;font-variant:normal;font-weight:normal;font-stretch:normal;font-size:20.47609329px;line-height:1.25;font-family:Roboto;-inkscape-font-specification:Roboto;letter-spacing:0px;word-spacing:0px;stroke-width:0.85317051"
         xml:space="preserve"><tspan
           style="stroke-width:0.85317051"
           y="88.597176"
           x="-230.13579"
           id="tspan10"
           sodipodi:role="line">SCA</tspan></text>
      <text
         id="text12-9"
         y="79.515076"
         x="-187.59328"
         style="font-style:normal;font-variant:normal;font-weight:normal;font-stretch:normal;font-size:20.47609329px;line-height:1.25;font-family:Roboto;-inkscape-font-specification:Roboto;letter-spacing:0px;word-spacing:0px;stroke-width:0.85317051"
         xml:space="preserve"><tspan
           style="stroke-width:0.85317051"
           y="79.515076"
           x="-187.59328"
           id="tspan10-6"
           sodipodi:role="line">2</tspan></text>
      <text
         id="text12-2"
         y="88.597176"
         x="-176.48068"
         style="font-style:normal;font-variant:normal;font-weight:normal;font-stretch:normal;font-size:20.47609329px;line-height:1.25;font-family:Roboto;-inkscape-font-specification:Roboto;letter-spacing:0px;word-spacing:0px;stroke-width:0.85317051"
         xml:space="preserve"><tspan
           style="stroke-width:0.85317051"
           y="88.597176"
           x="-176.48068"
           id="tspan10-1"
           sodipodi:role="line">D</tspan></text>
      <text
         transform="scale(0.72078358,1.387379)"
         id="text12-7"
         y="63.690403"
         x="-324.51065"
         style="font-style:normal;font-variant:normal;font-weight:normal;font-stretch:normal;font-size:17.72948647px;line-height:1.25;font-family:Roboto;-inkscape-font-specification:Roboto;letter-spacing:0px;word-spacing:0px;fill:#787878;fill-opacity:1;stroke-width:0.73872864"
         xml:space="preserve"><tspan
           style="fill:#787878;fill-opacity:1;stroke-width:0.73872864"
           y="63.690403"
           x="-324.51065"
           id="tspan10-3"
           sodipodi:role="line">(</tspan></text>
      <text
         transform="scale(-0.72078358,1.387379)"
         id="text12-7-1"
         y="63.690403"
         x="259.40817"
         style="font-style:normal;font-variant:normal;font-weight:normal;font-stretch:normal;font-size:17.72948837px;line-height:1.25;font-family:Roboto;-inkscape-font-specification:Roboto;letter-spacing:0px;word-spacing:0px;fill:#787878;fill-opacity:1;stroke-width:0.73872864"
         xml:space="preserve"><tspan
           style="fill:#787878;fill-opacity:1;stroke-width:0.73872864"
           y="63.690403"
           x="259.40817"
           id="tspan10-3-1"
           sodipodi:role="line">(</tspan></text>
    </g>
    <text
       xml:space="preserve"
       style="font-style:normal;font-variant:normal;font-weight:normal;font-stretch:normal;font-size:6.64560938px;line-height:1.25;font-family:Roboto;-inkscape-font-specification:Roboto;text-align:center;letter-spacing:0px;word-spacing:0px;text-anchor:middle;stroke-width:0.27690038"
       x="-200.23909"
       y="100.66988"
       id="text12-0"><tspan
         sodipodi:role="line"
         id="tspan10-5"
         x="-200.23909"
         y="100.66988"
         style="text-align:center;text-anchor:middle;stroke-width:0.27690038">Static Code Analysis</tspan><tspan
         sodipodi:role="line"
         x="-200.23909"
         y="108.9769"
         style="text-align:center;text-anchor:middle;stroke-width:0.27690038"
         id="tspan899">for SCAD</tspan></text>
  </g>
</svg>
